asd/lab-common/build/top.vcd
$date
	Fri Apr 17 10:43:22 2026
$end
$version
	Icarus Verilog
$end
$timescale
	1ps
$end
$scope module top_tb $end
$var wire 1 ! led $end
$var parameter 32 " CLK_PERIOD $end
$var reg 1 # bt $end
$var reg 1 $ clk_tb $end
$scope module dut $end
$var wire 1 # bt $end
$var wire 1 $ clk $end
$var wire 1 % rst $end
$var wire 7 & seg7 [6:0] $end
$var wire 1 ! led $end
$var wire 4 ' duty_cycle [3:0] $end
$scope module u_bt $end
$var wire 1 # bt $end
$var wire 1 $ clk $end
$var wire 1 % rst $end
$var wire 1 ( clk_0s25 $end
$var reg 4 ) duty_cycle [3:0] $end
$var reg 1 ! led $end
$var reg 3 * state [2:0] $end
$scope module u_clock_div $end
$var wire 1 $ clk $end
$var wire 1 ( out $end
$var wire 1 % rst $end
$var wire 1 + clk_8x_slow $end
$var wire 1 , clk_4x_slow $end
$var wire 1 - clk_2x_slow $end
$var wire 1 . clk_2s $end
$var wire 1 / clk_1s $end
$var wire 1 0 clk_0s5 $end
$var wire 1 1 clk_0s25 $end
$var reg 64 2 clk_div_counter [63:0] $end
$upscope $end
$upscope $end
$scope module u_decoder $end
$var wire 4 3 bcd [3:0] $end
$var reg 7 4 seg7 [6:0] $end
$upscope $end
$upscope $end
$upscope $end
$enddefinitions $end
$comment Show the parameter values. $end
$dumpall
b10 "
$end
#0
$dumpvars
b1111110 4
b0 3
bx 2
x1
x0
x/
x.
x-
x,
x+
b1 *
b0 )
x(
b0 '
b1111110 &
z%
1$
0#
0!
$end
#1000
0$
#2000
1$
#3000
0$
#4000
1$
#5000
0$
#6000
b10 *
1$
1#
#7000
0$
#8000
b110000 &
b110000 4
b1 '
b1 )
b1 3
1$
#9000
0$
#10000
b1101101 &
b1101101 4
b10 '
b10 )
b10 3
1$
#11000
0$
#12000
b1111001 &
b1111001 4
b11 '
b11 )
b11 3
1$
#13000
0$
#14000
b110011 &
b110011 4
b100 '
b100 )
b100 3
1$
#15000
0$
#16000
b1011011 &
b1011011 4
b101 '
b101 )
b101 3
1$
#17000
0$
#18000
b1011111 &
b1011111 4
b110 '
b110 )
b110 3
1$
#19000
0$
#20000
b1110000 &
b1110000 4
b111 '
b111 )
b111 3
1$
#21000
0$
#22000
b1111111 &
b1111111 4
b1000 '
b1000 )
b1000 3
1$
#23000
0$
#24000
b1111011 &
b1111011 4
b1001 '
b1001 )
b1001 3
1$
#25000
0$
#26000
b1110111 &
b1110111 4
b1010 '
b1010 )
b1010 3
1$
#27000
0$
#28000
b1111110 &
b1111110 4
b0 '
b0 )
b0 3
1$
#29000
0$
#30000
b110000 &
b110000 4
1!
b1 '
b1 )
b1 3
b11 *
1$
0#
#31000
0$
#32000
b100 *
1$
#33000
0$
#34000
1$
#35000
0$
#36000
b101 *
1$
1#
#37000
0$
#38000
b1101101 &
b1101101 4
b10 '
b10 )
b10 3
1$
#39000
0$
#40000
b1111001 &
b1111001 4
b11 '
b11 )
b11 3
1$
#41000
0$
#42000
b110011 &
b110011 4
0!
b100 '
b100 )
b100 3
b110 *
1$
0#
#43000
0$
#44000
b1 *
1$
